Chi-carré et méthode exacte de Fisher
…
1. avoir téléchargé le fichier data_visualisation.csv sur
Studium

2. noter le "folder path"

3. exécuter la syntaxe ci-dessus (en changeant le
"folder path").

Voici à quoi devrait ressembler votre banque de données après l’étape
de préparation :

df

## # A tibble: 100 × 4
##       id intervention genre education   
##    <int> <fct>        <fct> <fct>       
##  1     1 BPS          Femme Baccalauréat
##  2     2 Contrôle     Femme Baccalauréat
##  3     3 BPS          Femme Baccalauréat
##  4     4 Contrôle     Femme Baccalauréat
##  5     5 BPS          Femme Baccalauréat
##  6     6 Contrôle     Femme Baccalauréat
##  7     7 BPS          Femme Baccalauréat
##  8     8 BPS          Femme Baccalauréat
##  9     9 BPS          Homme Baccalauréat
## 10    10 Contrôle     Femme Baccalauréat
## # … with 90 more rows
…
