Comparaison de moyennes
…
1. avoir téléchargé le fichier data_visualisation.csv sur
Studium

2. noter le "folder path"

3. exécuter la syntaxe ci-dessus (en changeant le
"folder path").

Voici à quoi devrait ressembler votre banque de données après l’étape
de préparation :

df

## # A tibble: 100 × 3
##       id genre emotionPositive
##    <int> <fct>           <dbl>
##  1     1 Femme              27
##  2     2 Femme              27
##  3     3 Femme              20
##  4     4 Femme              26
##  5     5 Femme              23
##  6     6 Femme              21
##  7     7 Femme              24
##  8     8 Femme              29
##  9     9 Homme              27
## 10    10 Femme              41
## # ℹ 90 more rows
…
