Corrélation
…
1. avoir téléchargé le fichier data_visualisation.csv sur
Studium

2. noter le "folder path"

3. exécuter la syntaxe ci-dessus (en changeant le
"folder path").

Voici à quoi devrait ressembler votre banque de données après l’étape
de préparation :

df

## # A tibble: 100 × 3
##       id symptomesDepressifs emotionPositive
##    <int>               <dbl>           <dbl>
##  1     1                   9              27
##  2     2                   7              27
##  3     3                   1              20
##  4     4                  11              26
##  5     5                  23              23
##  6     6                   5              21
##  7     7                  10              24
##  8     8                   8              29
##  9     9                   4              27
## 10    10                   2              41
## # … with 90 more rows
…
