Importer les données
…
donnees_brutes <- read_csv("folder path") 

On peut maintenant afficher l’objet qu’on vient de créer en appellant
son nom :

donnees_brutes

## # A tibble: 45,989 × 6
##    MH_05 DEM_10 ANXDVGAD PPROV PAGEGR ...6 
##    <dbl>  <dbl>    <dbl> <dbl>  <dbl> <lgl>
##  1     3      2       11    35      6 NA   
##  2     3      2        5    13      7 NA   
##  3     1      1        0    12      4 NA   
##  4     2      1       10    48      4 NA   
##  5     3      2       11    59      7 NA   
##  6     2      1        0    35      7 NA   
##  7     2      1        0    59     10 NA   
##  8     1      1        0    59     10 NA   
##  9     4      2       12    35      8 NA   
## 10     4      2       16    13      4 NA   
## # … with 45,979 more rows
…
