Préparer les données
…
importer le fichier de données dans R (aka. assigner
RCC-5323-F-2020-SM_F1.csv à l’objet
donnees_brutes). Voici la syntaxe nécessaire :

library(readr)
donnees_brutes <- read_csv("folder path")

Vous devriez donc avoir dans votre environnement l’objet
donnees_brutes. On peut regarder à quoi ressemble cet objet
en exécutant simplement son nom :

donnees_brutes

## # A tibble: 45,989 × 6
##    MH_05 DEM_10 ANXDVGAD PPROV PAGEGR ...6 
##    <dbl>  <dbl>    <dbl> <dbl>  <dbl> <lgl>
##  1     3      2       11    35      6 NA   
##  2     3      2        5    13      7 NA   
##  3     1      1        0    12      4 NA   
##  4     2      1       10    48      4 NA   
##  5     3      2       11    59      7 NA   
##  6     2      1        0    35      7 NA   
##  7     2      1        0    59     10 NA   
##  8     1      1        0    59     10 NA   
##  9     4      2       12    35      8 NA   
## 10     4      2       16    13      4 NA   
## # … with 45,979 more rows
…
tibble(id = 1:24)

## # A tibble: 24 × 1
##       id
##    <int>
##  1     1
##  2     2
##  3     3
##  4     4
##  5     5
##  6     6
##  7     7
##  8     8
##  9     9
## 10    10
## # … with 14 more rows
…
Les valeurs arrêtent désormais à 21 et on compte 623
NA (ce qui correspond au nombre de 99 avant la
modification). Nous pouvons donc inclure cette variable à notre banque
de données propre avec l’esprit tranquille. On peut profiter de cette
opération pour donner un nom plus facile à se rappeler à notre variable
:

df$anxiete <- donnees_brutes$ANXDVGAD_noMissing

Voici désormais à quoi ressemble notre banque de données propre :

df

## # A tibble: 45,989 × 2
##       id anxiete
##    <int>   <dbl>
##  1     1      11
##  2     2       5
##  3     3       0
##  4     4      10
##  5     5      11
##  6     6       0
##  7     7       0
##  8     8       0
##  9     9      12
## 10    10      16
## # … with 45,979 more rows
…
Rappel: les parties de code précédées d’un #
sont des commentaires, pas de la syntaxe! Voici la même syntaxe vide
pour copier-coller :

donnees_brutes$variable_F <- factor(donnees_brutes$variable,
                                    levels = c(),
                                    labels = c())

On peut afficher le résultat :

donnees_brutes

## # A tibble: 45,989 × 8
##    MH_05 DEM_10 ANXDVGAD PPROV PAGEGR ...6  ANXDVGAD_noMissing PPROV_F          
##    <dbl>  <dbl>    <dbl> <dbl>  <dbl> <lgl>              <dbl> <fct>            
##  1     3      2       11    35      6 NA                    11 Ontario          
##  2     3      2        5    13      7 NA                     5 Nouvea-Brunswick 
##  3     1      1        0    12      4 NA                     0 Nouvelle-Écosse  
##  4     2      1       10    48      4 NA                    10 Alberta          
##  5     3      2       11    59      7 NA                    11 Colombie-Britani…
##  6     2      1        0    35      7 NA                     0 Ontario          
##  7     2      1        0    59     10 NA                     0 Colombie-Britani…
##  8     1      1        0    59     10 NA                     0 Colombie-Britani…
##  9     4      2       12    35      8 NA                    12 Ontario          
## 10     4      2       16    13      4 NA                    16 Nouvea-Brunswick 
## # … with 45,979 more rows

L’opération semble avoir fonctionnée. On peut donc inclure notre
variable à la banque de données.

df$province <- donnees_brutes$PPROV_F

Voici à quoi ressemble désormais notre banque de données propres
:

df

## # A tibble: 45,989 × 3
##       id anxiete province           
##    <int>   <dbl> <fct>              
##  1     1      11 Ontario            
##  2     2       5 Nouvea-Brunswick   
##  3     3       0 Nouvelle-Écosse    
##  4     4      10 Alberta            
##  5     5      11 Colombie-Britanique
##  6     6       0 Ontario            
##  7     7       0 Colombie-Britanique
##  8     8       0 Colombie-Britanique
##  9     9      12 Ontario            
## 10    10      16 Nouvea-Brunswick   
## # … with 45,979 more rows
…
