Test-t
…
1. avoir téléchargé le fichier data_visualisation.csv sur
Studium

2. noter le "folder path"

3. exécuter la syntaxe ci-dessus (en changeant le
"folder path").

Voici à quoi devrait ressembler votre banque de données après l’étape
de préparation :

df

## # A tibble: 100 × 5
##       id intervention genre emotionPositive_Pre emotionPositive_Post
##    <int> <fct>        <fct>               <dbl>                <dbl>
##  1     1 BPS          Femme                  27                24   
##  2     2 Contrôle     Femme                  27                33   
##  3     3 BPS          Femme                  20                20   
##  4     4 Contrôle     Femme                  26                20   
##  5     5 BPS          Femme                  23                14   
##  6     6 Contrôle     Femme                  21                32   
##  7     7 BPS          Femme                  24                29   
##  8     8 BPS          Femme                  29                28.03
##  9     9 BPS          Homme                  27                35   
## 10    10 Contrôle     Femme                  41                23   
## # ℹ 90 more rows
…
