Visualiser les données
…
Note: N’oubliez pas de changer le folder path!

Voici à quoi devrait ressembler votre banque de données après l’étape
de préparation :

df

## # A tibble: 100 × 5
##       id   age genre emotionPositive symptomesDepressifs
##    <int> <dbl> <fct>           <dbl>               <dbl>
##  1     1    22 Femme              27                   9
##  2     2    20 Femme              27                   7
##  3     3    21 Femme              20                   1
##  4     4    21 Femme              26                  11
##  5     5    24 Femme              23                  23
##  6     6    24 Femme              21                   5
##  7     7    23 Femme              24                  10
##  8     8    19 Femme              29                   8
##  9     9    22 Homme              27                   4
## 10    10    19 Femme              41                   2
## # … with 90 more rows
…
